Data Manipulation with tidyverse – R Handbook
…
names(mtcars_df)

 [1] "car_name" "mpg"      "cyl"      "disp"     "hp"       "drat"    
 [7] "wt"       "qsec"     "vs"       "am"       "gear"     "carb"    

select(): Pick columns by name

select() allows you to subset your data by choosing specific columns.

Code

# Select a few specific columns
mtcars_df %>% select(car_name, mpg, hp, cyl)

# A tibble: 32 × 4
   car_name            mpg    hp   cyl
   <chr>             <dbl> <dbl> <dbl>
 1 Mazda RX4          21     110     6
 2 Mazda RX4 Wag      21     110     6
 3 Datsun 710         22.8    93     4
 4 Hornet 4 Drive     21.4   110     6
 5 Hornet Sportabout  18.7   175     8
 6 Valiant            18.1   105     6
 7 Duster 360         14.3   245     8
 8 Merc 240D          24.4    62     4
 9 Merc 230           22.8    95     4
10 Merc 280           19.2   123     6
# ℹ 22 more rows

Use helper functions like starts_with(), ends_with(), and contains() for powerful selections.

Code

# Select all columns that start with the letter "d"
mtcars_df %>% select(starts_with("d"))

# A tibble: 32 × 2
    disp  drat
   <dbl> <dbl>
 1  160   3.9 
 2  160   3.9 
 3  108   3.85
 4  258   3.08
 5  360   3.15
 6  225   2.76
 7  360   3.21
 8  147.  3.69
 9  141.  3.92
10  168.  3.92
# ℹ 22 more rows

Use the - sign to deselect or drop columns.

Code

# Select all columns except `vs` and `am`
mtcars_df %>% select(-vs, -am)

# A tibble: 32 × 10
   car_name            mpg   cyl  disp    hp  drat    wt  qsec  gear  carb
   <chr>             <dbl> <dbl> <dbl> <dbl> <dbl> <dbl> <dbl> <dbl> <dbl>
 1 Mazda RX4          21       6  160    110  3.9   2.62  16.5     4     4
 2 Mazda RX4 Wag      21       6  160    110  3.9   2.88  17.0     4     4
 3 Datsun 710         22.8     4  108     93  3.85  2.32  18.6     4     1
 4 Hornet 4 Drive     21.4     6  258    110  3.08  3.22  19.4     3     1
 5 Hornet Sportabout  18.7     8  360    175  3.15  3.44  17.0     3     2
 6 Valiant            18.1     6  225    105  2.76  3.46  20.2     3     1
 7 Duster 360         14.3     8  360    245  3.21  3.57  15.8     3     4
 8 Merc 240D          24.4     4  147.    62  3.69  3.19  20       4     2
 9 Merc 230           22.8     4  141.    95  3.92  3.15  22.9     4     2
10 Merc 280           19.2     6  168.   123  3.92  3.44  18.3     4     4
# ℹ 22 more rows

Select by Index

You can also select columns by their position.

Code

mtcars_df %>% select(1, 2) 

# A tibble: 32 × 2
   car_name            mpg
   <chr>             <dbl>
 1 Mazda RX4          21  
 2 Mazda RX4 Wag      21  
 3 Datsun 710         22.8
 4 Hornet 4 Drive     21.4
 5 Hornet Sportabout  18.7
 6 Valiant            18.1
 7 Duster 360         14.3
 8 Merc 240D          24.4
 9 Merc 230           22.8
10 Merc 280           19.2
# ℹ 22 more rows

Drop Columns

Use the - sign to deselect or drop columns.

Code

mtcars_df %>% select(-cyl)

# A tibble: 32 × 11
   car_name            mpg  disp    hp  drat    wt  qsec    vs    am  gear  carb
   <chr>             <dbl> <dbl> <dbl> <dbl> <dbl> <dbl> <dbl> <dbl> <dbl> <dbl>
 1 Mazda RX4          21    160    110  3.9   2.62  16.5     0     1     4     4
 2 Mazda RX4 Wag      21    160    110  3.9   2.88  17.0     0     1     4     4
 3 Datsun 710         22.8  108     93  3.85  2.32  18.6     1     1     4     1
 4 Hornet 4 Drive     21.4  258    110  3.08  3.22  19.4     1     0     3     1
 5 Hornet Sportabout  18.7  360    175  3.15  3.44  17.0     0     0     3     2
 6 Valiant            18.1  225    105  2.76  3.46  20.2     1     0     3     1
 7 Duster 360         14.3  360    245  3.21  3.57  15.8     0     0     3     4
 8 Merc 240D          24.4  147.    62  3.69  3.19  20       1     0     4     2
 9 Merc 230           22.8  141.    95  3.92  3.15  22.9     1     0     4     2
10 Merc 280           19.2  168.   123  3.92  3.44  18.3     1     0     4     4
# ℹ 22 more rows

Rename Columns

The rename() verb changes the name of a column.

Code

mtcars_df %>% rename(new_cyl = cyl)

# A tibble: 32 × 12
   car_name    mpg new_cyl  disp    hp  drat    wt  qsec    vs    am  gear  carb
   <chr>     <dbl>   <dbl> <dbl> <dbl> <dbl> <dbl> <dbl> <dbl> <dbl> <dbl> <dbl>
 1 Mazda RX4  21         6  160    110  3.9   2.62  16.5     0     1     4     4
 2 Mazda RX…  21         6  160    110  3.9   2.88  17.0     0     1     4     4
 3 Datsun 7…  22.8       4  108     93  3.85  2.32  18.6     1     1     4     1
 4 Hornet 4…  21.4       6  258    110  3.08  3.22  19.4     1     0     3     1
 5 Hornet S…  18.7       8  360    175  3.15  3.44  17.0     0     0     3     2
 6 Valiant    18.1       6  225    105  2.76  3.46  20.2     1     0     3     1
 7 Duster 3…  14.3       8  360    245  3.21  3.57  15.8     0     0     3     4
 8 Merc 240D  24.4       4  147.    62  3.69  3.19  20       1     0     4     2
 9 Merc 230   22.8       4  141.    95  3.92  3.15  22.9     1     0     4     2
10 Merc 280   19.2       6  168.   123  3.92  3.44  18.3     1     0     4     4
# ℹ 22 more rows
…
arrange(): Reorder rows

arrange() sorts the rows of a data frame by one or more columns.

Code

# Sort cars by miles per gallon (mpg) in ascending order (the default)
mtcars_df %>% arrange(mpg)

# A tibble: 32 × 12
   car_name      mpg   cyl  disp    hp  drat    wt  qsec    vs    am  gear  carb
   <chr>       <dbl> <dbl> <dbl> <dbl> <dbl> <dbl> <dbl> <dbl> <dbl> <dbl> <dbl>
 1 Cadillac F…  10.4     8  472    205  2.93  5.25  18.0     0     0     3     4
 2 Lincoln Co…  10.4     8  460    215  3     5.42  17.8     0     0     3     4
 3 Camaro Z28   13.3     8  350    245  3.73  3.84  15.4     0     0     3     4
 4 Duster 360   14.3     8  360    245  3.21  3.57  15.8     0     0     3     4
 5 Chrysler I…  14.7     8  440    230  3.23  5.34  17.4     0     0     3     4
 6 Maserati B…  15       8  301    335  3.54  3.57  14.6     0     1     5     8
 7 Merc 450SLC  15.2     8  276.   180  3.07  3.78  18       0     0     3     3
 8 AMC Javelin  15.2     8  304    150  3.15  3.44  17.3     0     0     3     2
 9 Dodge Chal…  15.5     8  318    150  2.76  3.52  16.9     0     0     3     2
10 Ford Pante…  15.8     8  351    264  4.22  3.17  14.5     0     1     5     4
# ℹ 22 more rows

Use desc() to sort in descending order.

Code

# Sort by cylinder count (desc) and then by mpg (desc) for tie-breaking
mtcars_df %>% arrange(desc(cyl), desc(mpg))

# A tibble: 32 × 12
   car_name      mpg   cyl  disp    hp  drat    wt  qsec    vs    am  gear  carb
   <chr>       <dbl> <dbl> <dbl> <dbl> <dbl> <dbl> <dbl> <dbl> <dbl> <dbl> <dbl>
 1 Pontiac Fi…  19.2     8  400    175  3.08  3.84  17.0     0     0     3     2
 2 Hornet Spo…  18.7     8  360    175  3.15  3.44  17.0     0     0     3     2
 3 Merc 450SL   17.3     8  276.   180  3.07  3.73  17.6     0     0     3     3
 4 Merc 450SE   16.4     8  276.   180  3.07  4.07  17.4     0     0     3     3
 5 Ford Pante…  15.8     8  351    264  4.22  3.17  14.5     0     1     5     4
 6 Dodge Chal…  15.5     8  318    150  2.76  3.52  16.9     0     0     3     2
 7 Merc 450SLC  15.2     8  276.   180  3.07  3.78  18       0     0     3     3
 8 AMC Javelin  15.2     8  304    150  3.15  3.44  17.3     0     0     3     2
 9 Maserati B…  15       8  301    335  3.54  3.57  14.6     0     1     5     8
10 Chrysler I…  14.7     8  440    230  3.23  5.34  17.4     0     0     3     4
# ℹ 22 more rows

mutate(): Create new columns

mutate() adds new columns or transforms existing ones, while keeping all existing columns.

Code

# Create a new column for horsepower-to-weight ratio
mtcars_df %>% mutate(hp_per_wt = hp / wt)

# A tibble: 32 × 13
   car_name      mpg   cyl  disp    hp  drat    wt  qsec    vs    am  gear  carb
   <chr>       <dbl> <dbl> <dbl> <dbl> <dbl> <dbl> <dbl> <dbl> <dbl> <dbl> <dbl>
 1 Mazda RX4    21       6  160    110  3.9   2.62  16.5     0     1     4     4
 2 Mazda RX4 …  21       6  160    110  3.9   2.88  17.0     0     1     4     4
 3 Datsun 710   22.8     4  108     93  3.85  2.32  18.6     1     1     4     1
 4 Hornet 4 D…  21.4     6  258    110  3.08  3.22  19.4     1     0     3     1
 5 Hornet Spo…  18.7     8  360    175  3.15  3.44  17.0     0     0     3     2
 6 Valiant      18.1     6  225    105  2.76  3.46  20.2     1     0     3     1
 7 Duster 360   14.3     8  360    245  3.21  3.57  15.8     0     0     3     4
 8 Merc 240D    24.4     4  147.    62  3.69  3.19  20       1     0     4     2
 9 Merc 230     22.8     4  141.    95  3.92  3.15  22.9     1     0     4     2
10 Merc 280     19.2     6  168.   123  3.92  3.44  18.3     1     0     4     4
# ℹ 22 more rows
# ℹ 1 more variable: hp_per_wt <dbl>

Use case_when() for complex conditional logic, which is like a more powerful version of an if-else statement.

Code

# Create a column for cylinder category
mtcars_df %>% mutate(cyl_group = case_when(
    cyl == 4 ~ "Four-Cylinder",
    cyl == 6 ~ "Six-Cylinder",
    cyl == 8 ~ "Eight-Cylinder",
    TRUE ~ "Other" # Fallback for any other case
  ))

# A tibble: 32 × 13
   car_name      mpg   cyl  disp    hp  drat    wt  qsec    vs    am  gear  carb
   <chr>       <dbl> <dbl> <dbl> <dbl> <dbl> <dbl> <dbl> <dbl> <dbl> <dbl> <dbl>
 1 Mazda RX4    21       6  160    110  3.9   2.62  16.5     0     1     4     4
 2 Mazda RX4 …  21       6  160    110  3.9   2.88  17.0     0     1     4     4
 3 Datsun 710   22.8     4  108     93  3.85  2.32  18.6     1     1     4     1
 4 Hornet 4 D…  21.4     6  258    110  3.08  3.22  19.4     1     0     3     1
 5 Hornet Spo…  18.7     8  360    175  3.15  3.44  17.0     0     0     3     2
 6 Valiant      18.1     6  225    105  2.76  3.46  20.2     1     0     3     1
 7 Duster 360   14.3     8  360    245  3.21  3.57  15.8     0     0     3     4
 8 Merc 240D    24.4     4  147.    62  3.69  3.19  20       1     0     4     2
 9 Merc 230     22.8     4  141.    95  3.92  3.15  22.9     1     0     4     2
10 Merc 280     19.2     6  168.   123  3.92  3.44  18.3     1     0     4     4
# ℹ 22 more rows
# ℹ 1 more variable: cyl_group <chr>
…
