Resampling Methods in R – R Handbook
…
bootstraps() creates the bootstrap samples.

Code

bootstraps_resample <- bootstraps(iris, times = 1000)
bootstraps_resample

# Bootstrap sampling 
# A tibble: 1,000 × 2
   splits           id           
   <list>           <chr>        
 1 <split [150/57]> Bootstrap0001
 2 <split [150/46]> Bootstrap0002
 3 <split [150/52]> Bootstrap0003
 4 <split [150/59]> Bootstrap0004
 5 <split [150/52]> Bootstrap0005
 6 <split [150/52]> Bootstrap0006
 7 <split [150/53]> Bootstrap0007
 8 <split [150/50]> Bootstrap0008
 9 <split [150/56]> Bootstrap0009
10 <split [150/57]> Bootstrap0010
# ℹ 990 more rows
…
