quarto dashboard – R Handbook
…
Great Britain
42
10
31

year 2016 summer olympics data

Column - Medals by sport and year

Row - table Medals by sport

# A tibble: 86 × 2
   team          medals
   <chr>          <int>
 1 United States    264
 2 Germany          159
 3 Great Britain    145
 4 Russia           115
 5 China            113
 6 France            96
 7 Australia         82
 8 Italy             72
 9 Canada            69
10 Japan             64
# ℹ 76 more rows
…
